{
    "usageCount": 0, 
    "omitTrigger": false, 
    "prompt": false, 
    "description": "OSX Shift - PgDn", 
    "abbreviation": {
        "wordChars": "[\\w]", 
        "abbreviations": [], 
        "immediate": false, 
        "ignoreCase": false, 
        "backspace": true, 
        "triggerInside": false
    }, 
    "hotkey": {
        "hotKey": "<down>", 
        "modifiers": [
            "<alt>", 
            "<shift>"
        ]
    }, 
    "modes": [
        3
    ], 
    "showInTrayMenu": false, 
    "filter": {
        "regex": null, 
        "isRecursive": false
    }, 
    "type": "script", 
    "store": {}
}